{
"ResultSetLabels" : ["All", "All" ],

"IntercorrelationMaps": [
{"lhcb_pzscales"       : {"ictype": "DIAG", "scale": 1.0, "strategy": "AVG" }}
],
"ParameterEquivalenceLists" : [
""
]
}
                        

